nn_verilog/nn.vcd
$date
	Tue Jan 05 03:58:28 2021
$end
$version
	Icarus Verilog
$end
$timescale
	1ps
$end
$scope module _____00003aT0 $end
$var wire 8 ! _00005e_0000606 [7:0] $end
$var wire 1 " ack__fill $end
$var wire 1 # ack__network $end
$var wire 1 $ ram__outputs_00003a16_00003a_00003aabus__r $end
$var wire 1 % ram__outputs_00003a16_00003a_00003aabus__w $end
$var wire 8 & ram__outputs_00003a16_00003a_00003adbus__w [7:0] $end
$var wire 1 ' ram__outputs_00003a16_00003a_00003atrig__w $end
$var wire 1 ( rom__inputs_00003a1_00003a_00003aabus__r $end
$var wire 1 ) rom__inputs_00003a1_00003a_00003atrig__r $end
$var wire 1 * _00005e_0000609 $end
$var wire 1 + _00005e_0000608 $end
$var wire 1 , _00005e_0000607 $end
$var wire 1 - _00005e_0000605 $end
$var wire 1 . _00005e_0000604 $end
$var wire 1 / _00005e_0000603 $end
$var wire 1 0 _00005e_0000602 $end
$var wire 8 1 _00005e_00006011 [7:0] $end
$var wire 1 2 _00005e_00006010 $end
$var wire 1 3 _00005e_0000601 $end
$var wire 1 4 _00005e_0000600 $end
$var reg 1 4 clk $end
$var reg 1 / fill $end
$var reg 8 5 ram__outputs_00003a16_00003a_00003adbus__r [7:0] $end
$var reg 1 0 req $end
$var reg 8 6 rom__inputs_00003a1_00003a_00003adbus__r [7:0] $end
$var reg 1 3 rst $end
$scope module neural__network $end
$var wire 8 7 _00003a10 [7:0] $end
$var wire 8 8 _00003a89 [7:0] $end
$var wire 1 9 _00005e_00006053 $end
$var wire 1 : _00005e_00006054 $end
$var wire 1 ; _00005e_00006055 $end
$var wire 1 < _00005e_00006057 $end
$var wire 1 = _00005e_00006058 $end
$var wire 1 > _00005e_00006059 $end
$var wire 8 ? _00005e_00006061 [7:0] $end
$var wire 8 @ _00005e_00006067 [7:0] $end
$var wire 8 A _00005e_00006068 [7:0] $end
$var wire 1 B ack__0 $end
$var wire 1 C ack__1 $end
$var wire 1 . ack__fill $end
$var wire 8 D channel__a0_00003a102_00003a_00003areg__0 [7:0] $end
$var wire 8 E channel__a0_00003a102_00003a_00003areg__1 [7:0] $end
$var wire 1 F channel__a0_00003a102_00003a_00003arinc_00003a122_00003a_00003aabus__r $end
$var wire 1 G channel__inputs_00003a45_00003a_00003aabus__r $end
$var wire 1 H channel__inputs_00003a45_00003a_00003aabus__w $end
$var wire 8 I channel__inputs_00003a45_00003a_00003adbus__w [7:0] $end
$var wire 1 J channel__inputs_00003a45_00003a_00003atrig__r $end
$var wire 1 K channel__inputs_00003a45_00003a_00003atrig__w $end
$var wire 8 L channel__outputs_00003a74_00003a_00003areg__0 [7:0] $end
$var wire 1 M channel__outputs_00003a74_00003a_00003arinc_00003a88_00003a_00003aabus__r $end
$var wire 1 4 clk $end
$var wire 1 / fill $end
$var wire 1 N fill__inputs $end
$var wire 1 O fill__outputs $end
$var wire 1 0 req $end
$var wire 1 3 rst $end
$var wire 1 P _00005e_00006069 $end
$var wire 8 Q _00005e_00006066 [7:0] $end
$var wire 8 R _00005e_00006065 [7:0] $end
$var wire 8 S _00005e_00006064 [7:0] $end
$var wire 1 T _00005e_00006063 $end
$var wire 1 U _00005e_00006062 $end
$var wire 1 V _00005e_00006060 $end
$var wire 1 W _00005e_00006056 $end
$var reg 1 * _00003a32 $end
$var reg 1 2 _00003a33 $end
$var reg 8 X _00003a34 [7:0] $end
$var reg 1 Y _00003a61 $end
$var reg 1 Z _00003a62 $end
$var reg 8 [ _00003a63 [7:0] $end
$var reg 1 , _00003a8 $end
$var reg 1 + _00003a9 $end
$var reg 1 \ _00003a90 $end
$var reg 1 ] ack__inputs $end
$var reg 1 - ack__network $end
$var reg 2 ^ address__inputs [1:0] $end
$var reg 1 _ address__outputs $end
$var reg 8 ` channel__inputs_00003a45_00003a_00003adbus__r [7:0] $end
$var reg 1 a flag__inputs $end
$var reg 1 b flag__outputs $end
$var reg 8 c value__inputs [7:0] $end
$var reg 8 d value__outputs [7:0] $end
$scope module layer0 $end
$var wire 8 e _00003a149 [7:0] $end
$var wire 8 f _00003a164 [7:0] $end
$var wire 8 g _00003a172 [7:0] $end
$var wire 8 h _00003a173 [7:0] $end
$var wire 8 i _00003a221 [7:0] $end
$var wire 1 j _00003a222 $end
$var wire 8 k _00003a236 [7:0] $end
$var wire 1 l _00003a237 $end
$var wire 8 m _00003a249 [7:0] $end
$var wire 8 n _00003a250 [7:0] $end
$var wire 8 o _00003a59 [7:0] $end
$var wire 1 p _00005e_000060212 $end
$var wire 1 q _00005e_000060213 $end
$var wire 1 r _00005e_000060214 $end
$var wire 1 W ack__layer $end
$var wire 1 s ack__mac $end
$var wire 8 t channel__accum_00003a170_00003a_00003areg__0 [7:0] $end
$var wire 8 u channel__accum_00003a170_00003a_00003areg__1 [7:0] $end
$var wire 1 v channel__b0_00003a217_00003a_00003aabus__r $end
$var wire 1 w channel__b0_00003a217_00003a_00003atrig__r $end
$var wire 1 x channel__b1_00003a232_00003a_00003aabus__r $end
$var wire 1 y channel__b1_00003a232_00003a_00003atrig__r $end
$var wire 1 z channel__w0_00003a140_00003a_00003aabus__r $end
$var wire 1 { channel__w0_00003a140_00003a_00003atrig__r $end
$var wire 1 | channel__w1_00003a155_00003a_00003aabus__r $end
$var wire 1 } channel__w1_00003a155_00003a_00003atrig__r $end
$var wire 8 ~ channel__z_00003a247_00003a_00003areg__0 [7:0] $end
$var wire 8 !" channel__z_00003a247_00003a_00003areg__1 [7:0] $end
$var wire 1 9 clk $end
$var wire 1 ; req $end
$var wire 1 "" req__mac $end
$var wire 1 : rst $end
$var wire 8 #" value__a0 [7:0] $end
$var wire 8 $" value__a1 [7:0] $end
$var wire 8 %" _00005e_000060219 [7:0] $end
$var wire 8 &" _00005e_000060218 [7:0] $end
$var wire 8 '" _00005e_000060217 [7:0] $end
$var wire 8 (" _00005e_000060216 [7:0] $end
$var wire 1 )" _00005e_000060215 $end
$var reg 8 *" _00003a106 [7:0] $end
$var reg 8 +" _00003a107 [7:0] $end
$var reg 1 ," _00003a147 $end
$var reg 1 -" _00003a148 $end
$var reg 1 ." _00003a162 $end
$var reg 1 /" _00003a163 $end
$var reg 8 0" _00003a174 [7:0] $end
$var reg 8 1" _00003a175 [7:0] $end
$var reg 1 2" _00003a219 $end
$var reg 1 3" _00003a220 $end
$var reg 1 4" _00003a234 $end
$var reg 1 5" _00003a235 $end
$var reg 8 6" _00003a251 [7:0] $end
$var reg 8 7" _00003a252 [7:0] $end
$var reg 1 U _00003a57 $end
$var reg 1 T _00003a58 $end
$var reg 1 8" ack $end
$var reg 1 9" ack__a0 $end
$var reg 1 :" ack__a1 $end
$var reg 1 ;" ack__add $end
$var reg 8 <" add__n_00003a285_00003a_00003alv0 [7:0] $end
$var reg 8 =" add__n_00003a285_00003a_00003alv1 [7:0] $end
$var reg 1 >" add__n_00003a285_00003a_00003alvok0 $end
$var reg 1 ?" add__n_00003a285_00003a_00003alvok1 $end
$var reg 1 @" add__n_00003a285_00003a_00003arun $end
$var reg 8 A" add__n_00003a285_00003a_00003arv0 [7:0] $end
$var reg 8 B" add__n_00003a285_00003a_00003arv1 [7:0] $end
$var reg 1 C" add__n_00003a285_00003a_00003arvok0 $end
$var reg 1 D" add__n_00003a285_00003a_00003arvok1 $end
$var reg 8 E" channel__b0_00003a217_00003a_00003adbus__r [7:0] $end
$var reg 8 F" channel__b1_00003a232_00003a_00003adbus__r [7:0] $end
$var reg 8 G" channel__w0_00003a140_00003a_00003adbus__r [7:0] $end
$var reg 8 H" channel__w1_00003a155_00003a_00003adbus__r [7:0] $end
$var reg 1 I" flag__z0 $end
$var reg 1 J" flag__z1 $end
$var reg 8 K" mac__n1_00003a210_00003a_00003aav0 [7:0] $end
$var reg 8 L" mac__n1_00003a210_00003a_00003aav1 [7:0] $end
$var reg 8 M" mac__n1_00003a210_00003a_00003alv0 [7:0] $end
$var reg 8 N" mac__n1_00003a210_00003a_00003alv1 [7:0] $end
$var reg 1 O" mac__n1_00003a210_00003a_00003alvok0 $end
$var reg 1 P" mac__n1_00003a210_00003a_00003alvok1 $end
$var reg 1 Q" mac__n1_00003a210_00003a_00003arun $end
$var reg 8 R" mac__n1_00003a210_00003a_00003arv [7:0] $end
$var reg 1 S" mac__n1_00003a210_00003a_00003arvok $end
$var reg 1 T" mac__n1_00003a210_00003a_00003awok0 $end
$var reg 1 U" mac__n1_00003a210_00003a_00003awok1 $end
$var reg 8 V" value__z0 [7:0] $end
$var reg 8 W" value__z1 [7:0] $end
$scope module counter $end
$var wire 1 q ack $end
$var wire 1 p clk $end
$var wire 1 r rst $end
$var reg 1 )" ack__mac $end
$var reg 2 X" q [1:0] $end
$upscope $end
$scope module func0 $end
$var wire 4 Y" _00005e_000060545 [3:0] $end
$var wire 8 Z" _00005e_000060548 [7:0] $end
$var wire 8 [" _00005e_000060549 [7:0] $end
$var wire 8 \" _00005e_000060550 [7:0] $end
$var wire 8 ]" a [7:0] $end
$var wire 8 ^" base [7:0] $end
$var wire 8 _" next__data [7:0] $end
$var wire 8 `" z__value [7:0] $end
$var wire 8 a" remaining [7:0] $end
$var wire 4 b" address [3:0] $end
$var wire 8 c" _00005e_000060551 [7:0] $end
$var wire 8 d" _00005e_000060547 [7:0] $end
$var wire 8 e" _00005e_000060546 [7:0] $end
$scope module my__interpolator $end
$var wire 8 f" base [7:0] $end
$var wire 8 g" next__data [7:0] $end
$var wire 8 h" remaining [7:0] $end
$var reg 8 i" _00003a534_00003a_00003a_00003a531 [7:0] $end
$var reg 8 j" _00003a534_00003a_00003a_00003a532 [7:0] $end
$var reg 8 k" interpolated__value [7:0] $end
$upscope $end
$scope module my__lut $end
$var wire 4 l" address [3:0] $end
$var wire 8 m" base [7:0] $end
$var reg 8 n" next__data [7:0] $end
$upscope $end
$upscope $end
$scope module func1 $end
$var wire 4 o" _00005e_000060545 [3:0] $end
$var wire 8 p" _00005e_000060548 [7:0] $end
$var wire 8 q" _00005e_000060549 [7:0] $end
$var wire 8 r" _00005e_000060550 [7:0] $end
$var wire 8 s" a [7:0] $end
$var wire 8 t" base [7:0] $end
$var wire 8 u" next__data [7:0] $end
$var wire 8 v" z__value [7:0] $end
$var wire 8 w" remaining [7:0] $end
$var wire 4 x" address [3:0] $end
$var wire 8 y" _00005e_000060551 [7:0] $end
$var wire 8 z" _00005e_000060547 [7:0] $end
$var wire 8 {" _00005e_000060546 [7:0] $end
$scope module my__interpolator $end
$var wire 8 |" base [7:0] $end
$var wire 8 }" next__data [7:0] $end
$var wire 8 ~" remaining [7:0] $end
$var reg 8 !# _00003a543_00003a_00003a_00003a540 [7:0] $end
$var reg 8 "# _00003a543_00003a_00003a_00003a541 [7:0] $end
$var reg 8 ## interpolated__value [7:0] $end
$upscope $end
$scope module my__lut $end
$var wire 4 $# address [3:0] $end
$var wire 8 %# base [7:0] $end
$var reg 8 &# next__data [7:0] $end
$upscope $end
$upscope $end
$upscope $end
$scope module layer1 $end
$var wire 8 '# _00003a123 [7:0] $end
$var wire 8 (# _00003a124 [7:0] $end
$var wire 8 )# _00003a311 [7:0] $end
$var wire 8 *# _00003a319 [7:0] $end
$var wire 8 +# _00003a356 [7:0] $end
$var wire 1 ,# _00003a357 $end
$var wire 8 -# _00003a369 [7:0] $end
$var wire 1 .# _00005e_000060212 $end
$var wire 1 /# _00005e_000060213 $end
$var wire 1 0# _00005e_000060214 $end
$var wire 1 V ack__layer $end
$var wire 1 1# ack__mac $end
$var wire 8 2# channel__accum_00003a317_00003a_00003areg__0 [7:0] $end
$var wire 1 3# channel__b0_00003a352_00003a_00003aabus__r $end
$var wire 1 4# channel__b0_00003a352_00003a_00003atrig__r $end
$var wire 1 5# channel__w0_00003a302_00003a_00003aabus__r $end
$var wire 1 6# channel__w0_00003a302_00003a_00003atrig__r $end
$var wire 8 7# channel__z_00003a367_00003a_00003areg__0 [7:0] $end
$var wire 1 < clk $end
$var wire 1 > req $end
$var wire 1 8# req__mac $end
$var wire 1 = rst $end
$var wire 8 9# value__a0 [7:0] $end
$var wire 8 :# _00005e_000060217 [7:0] $end
$var wire 8 ;# _00005e_000060216 [7:0] $end
$var wire 1 <# _00005e_000060215 $end
$var reg 1 P _00003a125 $end
$var reg 1 =# _00003a309 $end
$var reg 1 ># _00003a310 $end
$var reg 8 ?# _00003a320 [7:0] $end
$var reg 1 @# _00003a354 $end
$var reg 1 A# _00003a355 $end
$var reg 8 B# _00003a370 [7:0] $end
$var reg 8 C# _00003a77 [7:0] $end
$var reg 1 D# ack $end
$var reg 1 V ack__a0 $end
$var reg 1 E# ack__add $end
$var reg 8 F# add__n_00003a395_00003a_00003alv0 [7:0] $end
$var reg 1 G# add__n_00003a395_00003a_00003alvok0 $end
$var reg 1 H# add__n_00003a395_00003a_00003arun $end
$var reg 8 I# add__n_00003a395_00003a_00003arv0 [7:0] $end
$var reg 1 J# add__n_00003a395_00003a_00003arvok0 $end
$var reg 8 K# channel__b0_00003a352_00003a_00003adbus__r [7:0] $end
$var reg 8 L# channel__w0_00003a302_00003a_00003adbus__r [7:0] $end
$var reg 1 M# flag__z0 $end
$var reg 8 N# mac__n1_00003a347_00003a_00003aav0 [7:0] $end
$var reg 8 O# mac__n1_00003a347_00003a_00003alv0 [7:0] $end
$var reg 1 P# mac__n1_00003a347_00003a_00003alvok0 $end
$var reg 1 Q# mac__n1_00003a347_00003a_00003arun $end
$var reg 8 R# mac__n1_00003a347_00003a_00003arv [7:0] $end
$var reg 1 S# mac__n1_00003a347_00003a_00003arvok $end
$var reg 1 T# mac__n1_00003a347_00003a_00003awok0 $end
$var reg 8 U# value__z0 [7:0] $end
$scope module counter $end
$var wire 1 /# ack $end
$var wire 1 .# clk $end
$var wire 1 0# rst $end
$var reg 1 <# ack__mac $end
$var reg 2 V# q [1:0] $end
$upscope $end
$scope module func0 $end
$var wire 4 W# _00005e_000060545 [3:0] $end
$var wire 8 X# _00005e_000060548 [7:0] $end
$var wire 8 Y# _00005e_000060549 [7:0] $end
$var wire 8 Z# _00005e_000060550 [7:0] $end
$var wire 8 [# a [7:0] $end
$var wire 8 \# base [7:0] $end
$var wire 8 ]# next__data [7:0] $end
$var wire 8 ^# z__value [7:0] $end
$var wire 8 _# remaining [7:0] $end
$var wire 4 `# address [3:0] $end
$var wire 8 a# _00005e_000060551 [7:0] $end
$var wire 8 b# _00005e_000060547 [7:0] $end
$var wire 8 c# _00005e_000060546 [7:0] $end
$scope module my__interpolator $end
$var wire 8 d# base [7:0] $end
$var wire 8 e# next__data [7:0] $end
$var wire 8 f# remaining [7:0] $end
$var reg 8 g# _00003a603_00003a_00003a_00003a600 [7:0] $end
$var reg 8 h# _00003a603_00003a_00003a_00003a601 [7:0] $end
$var reg 8 i# interpolated__value [7:0] $end
$upscope $end
$scope module my__lut $end
$var wire 4 j# address [3:0] $end
$var wire 8 k# base [7:0] $end
$var reg 8 l# next__data [7:0] $end
$upscope $end
$upscope $end
$upscope $end
$upscope $end
$upscope $end
$enddefinitions $end
#0
$dumpvars
bx l#
bx k#
bx j#
bx i#
bx h#
bx g#
b0xxxx f#
bx e#
bx d#
bx c#
bx b#
bx a#
bx `#
b0xxxx _#
bx ^#
bx ]#
bx \#
bx [#
b0xxxx Z#
bx Y#
bx X#
bx W#
bx V#
bx U#
xT#
xS#
bx R#
xQ#
xP#
bx O#
bx N#
xM#
bx L#
bx K#
xJ#
bx I#
xH#
xG#
bx F#
xE#
xD#
bx C#
bx B#
xA#
x@#
bx ?#
x>#
x=#
x<#
bx ;#
bx :#
bx 9#
x8#
bx 7#
x6#
x5#
x4#
x3#
bx 2#
x1#
00#
x/#
0.#
bx -#
0,#
bx +#
bx *#
bx )#
bx (#
bx '#
bx &#
bx %#
bx $#
bx ##
bx "#
bx !#
b0xxxx ~"
bx }"
bx |"
bx {"
bx z"
bx y"
bx x"
b0xxxx w"
bx v"
bx u"
bx t"
bx s"
b0xxxx r"
bx q"
bx p"
bx o"
bx n"
bx m"
bx l"
bx k"
bx j"
bx i"
b0xxxx h"
bx g"
bx f"
bx e"
bx d"
bx c"
bx b"
b0xxxx a"
bx `"
bx _"
bx ^"
bx ]"
b0xxxx \"
bx ["
bx Z"
bx Y"
bx X"
bx W"
bx V"
xU"
xT"
xS"
bx R"
xQ"
xP"
xO"
bx N"
bx M"
bx L"
bx K"
xJ"
xI"
bx H"
bx G"
bx F"
bx E"
xD"
xC"
bx B"
bx A"
x@"
x?"
x>"
bx ="
bx <"
x;"
x:"
x9"
x8"
bx 7"
bx 6"
x5"
x4"
x3"
x2"
bx 1"
bx 0"
x/"
x."
x-"
x,"
bx +"
bx *"
x)"
bx ("
bx '"
bx &"
bx %"
bx $"
bx #"
0""
bx !"
bx ~
x}
x|
x{
xz
xy
xx
xw
xv
bx u
bx t
xs
0r
xq
0p
bx o
bx n
bx m
0l
bx k
0j
bx i
bx h
bx g
bx f
bx e
bx d
bx c
xb
xa
bx `
x_
bx ^
x]
x\
bx [
xZ
xY
bx X
xW
xV
xU
xT
bx S
bx R
bx Q
xP
xO
0N
xM
bx L
xK
xJ
bx I
xH
xG
xF
bx E
bx D
xC
xB
bx A
bx @
bx ?
x>
0=
0<
0;
0:
09
bx 8
bx 7
bx 6
bx 5
04
03
x2
bx 1
00
0/
x.
x-
x,
x+
x*
x)
x(
x'
bx &
x%
z$
x#
x"
bx !
$end
#10
1r
1j
1l
1:
10#
1,#
1=
13
#20
08#
0O
0>
0B
0W
0J"
0I"
0:"
09"
b0 L"
b0 K"
0Q"
0q
08"
0J
0U
1G
1T
0{
0,"
1z
1-"
0}
0."
1|
1/"
0D"
0?"
0C"
0>"
0@"
0;"
0w
02"
0y
04"
0M#
0C
0V
b0 N#
0Q#
0/#
0D#
0F
0P
06#
0=#
15#
1>#
0J#
0G#
0H#
0E#
04#
0@#
0"
0.
0]
0a
b0 ^
0)
0,
1(
1+
0K
0Y
1H
1Z
0#
0-
0b
0_
0M
0\
0'
0*
1%
12
1p
19
1.#
1<
14
#30
b10000 !
b10000 7
b10000 6
0s
0)"
b0 X"
b11000 f
b11000 H"
b11110010 e
b11110010 G"
01#
0<#
b0 V#
b1101 )#
b1101 L#
0p
09
0.#
0<
04
#40
0U"
0P"
0T"
0O"
0S"
0T#
0P#
0S#
1p
19
1.#
1<
14
#50
1N
1/
0r
0j
0l
0:
00#
0,#
0=
03
0p
09
0.#
0<
04
#60
1)
1,
0(
0+
1p
19
1.#
1<
14
#70
0p
09
0.#
0<
04
#80
0N
1a
b10000 c
0)
0,
1p
19
1.#
1<
14
#90
0p
09
0.#
0<
04
#100
1N
b10000 I
b10000 [
1K
1Y
0H
0Z
0a
b1 ^
1p
19
1.#
1<
14
#110
0p
09
0.#
0<
04
#120
1)
1,
1(
1+
0K
0Y
1p
19
1.#
1<
14
#130
0p
09
0.#
0<
04
#140
0N
1a
0)
0,
1p
19
1.#
1<
14
#150
0p
09
0.#
0<
04
#160
1N
1K
1Y
1H
1Z
0a
b10 ^
1p
19
1.#
1<
14
#170
0p
09
0.#
0<
04
#180
1)
1,
0(
0+
0K
0Y
1p
19
1.#
1<
14
#190
b10000 ?
b10000 o
b10000 `
0p
09
0.#
0<
04
#200
0N
1a
0)
0,
1p
19
1.#
1<
14
#210
0p
09
0.#
0<
04
#220
0N
1K
1Y
0H
0Z
1"
1.
1]
0a
b11 ^
1p
19
1.#
1<
14
#230
0p
09
0.#
0<
04
#240
0K
0Y
1p
19
1.#
1<
14
#250
0p
09
0.#
0<
04
#260
1p
19
1.#
1<
14
0/
#270
1""
1;
10
0p
09
0.#
0<
04
#280
1}
1."
0|
0/"
1{
1,"
0z
0-"
1J
1U
0G
0T
1Q"
1p
19
1.#
1<
14
#290
b1100 e
b1100 G"
b11101111 f
b11101111 H"
0p
09
0.#
0<
04
#300
1P"
b11101111 N"
0}
0."
1O"
b1100 M"
0{
0,"
1S"
b10000 R"
1Q"
0J
0U
1p
19
1.#
1<
14
#310
0p
09
0.#
0<
04
#320
1U"
b0 h
b0 u
b0 1"
b11101111 L"
1T"
b0 g
b0 t
b0 0"
b1100 K"
1q
18"
0Q"
1p
19
1.#
1<
14
#330
b1 X"
0p
09
0.#
0<
04
#340
1Q"
0U"
0P"
0T"
0O"
0S"
0q
08"
1p
19
1.#
1<
14
#350
0p
09
0.#
0<
04
#360
1}
1."
1|
1/"
1{
1,"
1z
1-"
1J
1U
1G
1T
1Q"
1p
19
1.#
1<
14
#370
b11110010 e
b11110010 G"
b11000 f
b11000 H"
0p
09
0.#
0<
04
#380
1P"
b11000 N"
0}
0."
1O"
b11110010 M"
0{
0,"
1S"
1Q"
0J
0U
1p
19
1.#
1<
14
#390
0p
09
0.#
0<
04
#400
1U"
b11101111 h
b11101111 u
b11101111 1"
b111 L"
1T"
b1100 g
b1100 t
b1100 0"
b11111110 K"
1q
18"
0Q"
1p
19
1.#
1<
14
#410
b10 X"
0p
09
0.#
0<
04
#420
1Q"
0U"
0P"
0T"
0O"
0S"
0q
08"
1p
19
1.#
1<
14
#430
0p
09
0.#
0<
04
#440
1}
1."
0|
0/"
1{
1,"
0z
0-"
1J
1U
0G
0T
1Q"
1p
19
1.#
1<
14
#450
b1100 e
b1100 G"
b11101111 f
b11101111 H"
0p
09
0.#
0<
04
#460
1P"
b11101111 N"
0}
0."
1O"
b1100 M"
0{
0,"
1S"
1Q"
0J
0U
1p
19
1.#
1<
14
#470
0p
09
0.#
0<
04
#480
1U"
b111 h
b111 u
b111 1"
b11110110 L"
1T"
b11111110 g
b11111110 t
b11111110 0"
b1010 K"
1q
18"
0Q"
1p
19
1.#
1<
14
#490
0""
1s
1)"
b0 X"
0p
09
0.#
0<
04
#500
b0 L"
b0 K"
0U"
0P"
0T"
0O"
0S"
0q
08"
1y
14"
0x
05"
1?"
b111 ="
1w
12"
0v
03"
1>"
b11111110 <"
1@"
1p
19
1.#
1<
14
#510
b11111101 k
b11111101 F"
b1 i
b1 E"
0p
09
0.#
0<
04
#520
1D"
b11111101 B"
1C"
b1 A"
1@"
0w
02"
0y
04"
1p
19
1.#
1<
14
#530
0p
09
0.#
0<
04
#540
b100 n
b100 !"
b100 7"
1y
14"
b11111111 m
b11111111 ~
b11111111 6"
1;"
1w
12"
0@"
1p
19
1.#
1<
14
#550
0p
09
0.#
0<
04
#560
b100 $"
b100 %"
b100 s"
b100 y"
b100 ##
b10000 "#
b10000 !#
b0 #"
b0 '"
b0 ]"
b0 c"
b0 k"
b0 j"
b0 i"
b10000 q"
b10000 }"
b10000 u"
b10000 z"
b10000 &#
b0 ["
b0 g"
b0 _"
b0 d"
b0 n"
b0 p"
b0 |"
b0 t"
b0 {"
b0 %#
b0 o"
b0 $#
b0 x"
b100 r"
b100 ~"
b100 w"
b0 Z"
b0 f"
b0 ^"
b0 e"
b0 m"
b1111 Y"
b1111 l"
b1111 b"
b1111 \"
b1111 h"
b1111 a"
0@"
1;"
0w
02"
0y
04"
1J"
b100 &"
b100 W"
b100 v"
1I"
b11111111 ("
b11111111 V"
b11111111 `"
1p
19
1.#
1<
14
#570
0p
09
0.#
0<
04
#580
18#
1>
1B
1W
1:"
b100 A
b100 (#
b100 E
b100 Q
b100 +"
19"
b0 @
b0 '#
b0 D
b0 R
b0 *"
1y
14"
1w
12"
0@"
1;"
1p
19
1.#
1<
14
#590
0p
09
0.#
0<
04
#600
0@"
1;"
0w
02"
0y
04"
16#
1=#
05#
0>#
1F
1P
1S#
b0 R#
1Q#
1p
19
1.#
1<
14
#610
b10100 )#
b10100 L#
0p
09
0.#
0<
04
#620
1y
14"
1w
12"
0@"
1;"
1P#
b10100 O#
06#
0=#
1Q#
1p
19
1.#
1<
14
#630
0p
09
0.#
0<
04
#640
0@"
1;"
0w
02"
0y
04"
1T#
b0 *#
b0 2#
b0 ?#
1/#
1D#
0Q#
1p
19
1.#
1<
14
#650
b1 V#
0p
09
0.#
0<
04
#660
1y
14"
1w
12"
0@"
1;"
1Q#
0T#
0P#
0S#
0/#
0D#
1p
19
1.#
1<
14
#670
0p
09
0.#
0<
04
#680
0@"
1;"
0w
02"
0y
04"
16#
1=#
15#
1>#
0F
0P
1S#
b100 R#
1Q#
1p
19
1.#
1<
14
#690
b1101 )#
b1101 L#
0p
09
0.#
0<
04
#700
1y
14"
1w
12"
0@"
1;"
1P#
b1101 O#
06#
0=#
1Q#
1p
19
1.#
1<
14
#710
0p
09
0.#
0<
04
#720
0@"
1;"
0w
02"
0y
04"
1T#
b11 N#
1/#
1D#
0Q#
1p
19
1.#
1<
14
#730
b10 V#
0p
09
0.#
0<
04
#740
1y
14"
1w
12"
0@"
1;"
1Q#
0T#
0P#
0S#
0/#
0D#
1p
19
1.#
1<
14
#750
0p
09
0.#
0<
04
#760
0@"
1;"
0w
02"
0y
04"
16#
1=#
05#
0>#
1F
1P
1S#
b0 R#
1Q#
1p
19
1.#
1<
14
#770
b10100 )#
b10100 L#
0p
09
0.#
0<
04
#780
1y
14"
1w
12"
0@"
1;"
1P#
b10100 O#
06#
0=#
1Q#
1p
19
1.#
1<
14
#790
0p
09
0.#
0<
04
#800
0@"
1;"
0w
02"
0y
04"
1T#
b11 *#
b11 2#
b11 ?#
1/#
1D#
0Q#
1p
19
1.#
1<
14
#810
08#
11#
1<#
b0 V#
0p
09
0.#
0<
04
#820
1y
14"
1w
12"
0@"
1;"
b0 N#
0T#
0P#
0S#
0/#
0D#
14#
1@#
03#
0A#
1G#
b11 F#
1H#
1p
19
1.#
1<
14
#830
b11111110 +#
b11111110 K#
0p
09
0.#
0<
04
#840
0@"
1;"
0w
02"
0y
04"
1J#
b11111110 I#
1H#
04#
0@#
1p
19
1.#
1<
14
#850
0p
09
0.#
0<
04
#860
1y
14"
1w
12"
0@"
1;"
b1 -#
b1 7#
b1 B#
1E#
14#
1@#
0H#
1p
19
1.#
1<
14
#870
0p
09
0.#
0<
04
#880
b1 9#
b1 :#
b1 [#
b1 a#
b1 i#
b10000 h#
b10000 g#
b10000 Y#
b10000 e#
b10000 ]#
b10000 b#
b10000 l#
b0 X#
b0 d#
b0 \#
b0 c#
b0 k#
b0 W#
b0 j#
b0 `#
b1 Z#
b1 f#
b1 _#
0@"
1;"
0w
02"
0y
04"
0H#
1E#
04#
0@#
1M#
b1 ;#
b1 U#
b1 ^#
1p
19
1.#
1<
14
#890
0p
09
0.#
0<
04
#900
1O
1y
14"
1w
12"
0@"
1;"
1C
1V
b1 8
b1 L
b1 S
b1 C#
14#
1@#
0H#
1E#
1p
19
1.#
1<
14
#910
0p
09
0.#
0<
04
#920
0O
0@"
1;"
0w
02"
0y
04"
0H#
1E#
04#
0@#
1M
1\
1b
b1 d
1p
19
1.#
1<
14
#930
0p
09
0.#
0<
04
#940
1O
1y
14"
1w
12"
0@"
1;"
14#
1@#
0H#
1E#
b1 &
b1 1
b1 X
1'
1*
0%
02
0b
1_
1p
19
1.#
1<
14
#950
0p
09
0.#
0<
04
#960
0O
0@"
1;"
0w
02"
0y
04"
0H#
1E#
04#
0@#
0M
0\
1b
0'
0*
1p
19
1.#
1<
14
#970
0p
09
0.#
0<
04
#980
0O
1y
14"
1w
12"
0@"
1;"
14#
1@#
0H#
1E#
1'
1*
1%
12
1#
1-
0b
0_
1p
19
1.#
1<
14
#990
0p
09
0.#
0<
04
#1000
0@"
1;"
0w
02"
0y
04"
0H#
1E#
04#
0@#
0'
0*
1p
19
1.#
1<
14
#1010
0p
09
0.#
0<
04
#1020
1y
14"
1w
12"
0@"
1;"
14#
1@#
0H#
1E#
1p
19
1.#
1<
14
#1030
0p
09
0.#
0<
04
#1040
0@"
1;"
0w
02"
0y
04"
0H#
1E#
04#
0@#
1p
19
1.#
1<
14
#1050
0p
09
0.#
0<
04
#1060
1y
14"
1w
12"
0@"
1;"
14#
1@#
0H#
1E#
1p
19
1.#
1<
14
#1070
0p
09
0.#
0<
04
#1080
0@"
1;"
0w
02"
0y
04"
0H#
1E#
04#
0@#
1p
19
1.#
1<
14
