LSTM/LSTM_hardware/hruby_simulator.vcd
$date
   09 12 2020 03:43
$end
$version
   Generated from HDLRuby simulator
$end
$comment
   Is it an easter egg?
$end
$timescale 1ps $end
$scope module __$T0 $end
$var wire 1 __$T0$__$T$clk clk $end
$var wire 1 __$T0$__$T$rst rst $end
$var wire 1 __$T0$__$T$req req $end
$var wire 1 __$T0$__$T$fill fill $end
$var wire 8 __$T0$__$T$$10 $10 $end
$var wire 1 __$T0$__$T$$8 $8 $end
$var wire 1 __$T0$__$T$$9 $9 $end
$var wire 1 __$T0$__$T$$105 $105 $end
$var wire 1 __$T0$__$T$$106 $106 $end
$var wire 8 __$T0$__$T$$107 $107 $end
$var wire 1 __$T0$__$T$$134 $134 $end
$var wire 1 __$T0$__$T$$135 $135 $end
$var wire 8 __$T0$__$T$$136 $136 $end
$scope module rom_inputs_x$1 $end
$var wire 1 __$T0$__$T$rom_inputs_x$1$trig_r trig_r $end
$var wire 8 __$T0$__$T$rom_inputs_x$1$dbus_r dbus_r $end
$var wire 1 __$T0$__$T$rom_inputs_x$1$abus_r abus_r $end
$var wire 16 __$T0$__$T$rom_inputs_x$1$mem mem $end
$upscope $end
$scope module rom_inputs_h$16 $end
$var wire 1 __$T0$__$T$rom_inputs_h$16$trig_r trig_r $end
$var wire 8 __$T0$__$T$rom_inputs_h$16$dbus_r dbus_r $end
$var wire 1 __$T0$__$T$rom_inputs_h$16$abus_r abus_r $end
$var wire 16 __$T0$__$T$rom_inputs_h$16$mem mem $end
$upscope $end
$scope module ram_inputs_serializer$31 $end
$var wire 1 __$T0$__$T$ram_inputs_serializer$31$trig_r trig_r $end
$var wire 1 __$T0$__$T$ram_inputs_serializer$31$trig_w trig_w $end
$var wire 8 __$T0$__$T$ram_inputs_serializer$31$dbus_r dbus_r $end
$var wire 8 __$T0$__$T$ram_inputs_serializer$31$dbus_w dbus_w $end
$var wire 1 __$T0$__$T$ram_inputs_serializer$31$abus_r abus_r $end
$var wire 1 __$T0$__$T$ram_inputs_serializer$31$abus_w abus_w $end
$var wire 16 __$T0$__$T$ram_inputs_serializer$31$mem mem $end
$upscope $end
$scope module ram_inputs_merger$60 $end
$var wire 1 __$T0$__$T$ram_inputs_merger$60$trig_r trig_r $end
$var wire 1 __$T0$__$T$ram_inputs_merger$60$trig_w trig_w $end
$var wire 8 __$T0$__$T$ram_inputs_merger$60$dbus_r dbus_r $end
$var wire 8 __$T0$__$T$ram_inputs_merger$60$dbus_w dbus_w $end
$var wire 2 __$T0$__$T$ram_inputs_merger$60$abus_r abus_r $end
$var wire 2 __$T0$__$T$ram_inputs_merger$60$abus_w abus_w $end
$var wire 32 __$T0$__$T$ram_inputs_merger$60$mem mem $end
$upscope $end
$scope module ram_output_dupulicator0$89 $end
$var wire 1 __$T0$__$T$ram_output_dupulicator0$89$trig_r trig_r $end
$var wire 1 __$T0$__$T$ram_output_dupulicator0$89$trig_w trig_w $end
$var wire 8 __$T0$__$T$ram_output_dupulicator0$89$dbus_r dbus_r $end
$var wire 8 __$T0$__$T$ram_output_dupulicator0$89$dbus_w dbus_w $end
$var wire 1 __$T0$__$T$ram_output_dupulicator0$89$abus_r abus_r $end
$var wire 1 __$T0$__$T$ram_output_dupulicator0$89$abus_w abus_w $end
$var wire 16 __$T0$__$T$ram_output_dupulicator0$89$mem mem $end
$upscope $end
$scope module ram_output_dupulicator1$118 $end
$var wire 1 __$T0$__$T$ram_output_dupulicator1$118$trig_r trig_r $end
$var wire 1 __$T0$__$T$ram_output_dupulicator1$118$trig_w trig_w $end
$var wire 8 __$T0$__$T$ram_output_dupulicator1$118$dbus_r dbus_r $end
$var wire 8 __$T0$__$T$ram_output_dupulicator1$118$dbus_w dbus_w $end
$var wire 1 __$T0$__$T$ram_output_dupulicator1$118$abus_r abus_r $end
$var wire 1 __$T0$__$T$ram_output_dupulicator1$118$abus_w abus_w $end
$var wire 16 __$T0$__$T$ram_output_dupulicator1$118$mem mem $end
$upscope $end
$scope module duplicator$147 $end
$var wire 1 __$T0$__$T$duplicator$147$in_ack in_ack $end
$var wire 1 __$T0$__$T$duplicator$147$in_req in_req $end
$var wire 1 __$T0$__$T$duplicator$147$out_ack0 out_ack0 $end
$var wire 1 __$T0$__$T$duplicator$147$out_ack1 out_ack1 $end
$var wire 8 __$T0$__$T$duplicator$147$data data $end
$upscope $end
$upscope $end
$enddefinitions $end
$dumpvars
bx __$T0$__$T$clk
bx __$T0$__$T$rst
bx __$T0$__$T$req
bx __$T0$__$T$fill
bxxxxxxxx __$T0$__$T$$10
bx __$T0$__$T$$8
bx __$T0$__$T$$9
bx __$T0$__$T$$105
bx __$T0$__$T$$106
bxxxxxxxx __$T0$__$T$$107
bx __$T0$__$T$$134
bx __$T0$__$T$$135
bxxxxxxxx __$T0$__$T$$136
bx __$T0$__$T$rom_inputs_x$1$trig_r
bxxxxxxxx __$T0$__$T$rom_inputs_x$1$dbus_r
bx __$T0$__$T$rom_inputs_x$1$abus_r
b0000000000010000 __$T0$__$T$rom_inputs_x$1$mem
bx __$T0$__$T$rom_inputs_h$16$trig_r
bxxxxxxxx __$T0$__$T$rom_inputs_h$16$dbus_r
bx __$T0$__$T$rom_inputs_h$16$abus_r
b0001000000000000 __$T0$__$T$rom_inputs_h$16$mem
bx __$T0$__$T$ram_inputs_serializer$31$trig_r
bx __$T0$__$T$ram_inputs_serializer$31$trig_w
bxxxxxxxx __$T0$__$T$ram_inputs_serializer$31$dbus_r
bxxxxxxxx __$T0$__$T$ram_inputs_serializer$31$dbus_w
bx __$T0$__$T$ram_inputs_serializer$31$abus_r
bx __$T0$__$T$ram_inputs_serializer$31$abus_w
bxxxxxxxxxxxxxxxx __$T0$__$T$ram_inputs_serializer$31$mem
bx __$T0$__$T$ram_inputs_merger$60$trig_r
bx __$T0$__$T$ram_inputs_merger$60$trig_w
bxxxxxxxx __$T0$__$T$ram_inputs_merger$60$dbus_r
bxxxxxxxx __$T0$__$T$ram_inputs_merger$60$dbus_w
bxx __$T0$__$T$ram_inputs_merger$60$abus_r
bxx __$T0$__$T$ram_inputs_merger$60$abus_w
bxxxxxxxxxxxxxxxxxxxxxxxxxxxxxxxx __$T0$__$T$ram_inputs_merger$60$mem
bx __$T0$__$T$ram_output_dupulicator0$89$trig_r
bx __$T0$__$T$ram_output_dupulicator0$89$trig_w
bxxxxxxxx __$T0$__$T$ram_output_dupulicator0$89$dbus_r
bxxxxxxxx __$T0$__$T$ram_output_dupulicator0$89$dbus_w
bx __$T0$__$T$ram_output_dupulicator0$89$abus_r
bx __$T0$__$T$ram_output_dupulicator0$89$abus_w
bxxxxxxxxxxxxxxxx __$T0$__$T$ram_output_dupulicator0$89$mem
bx __$T0$__$T$ram_output_dupulicator1$118$trig_r
bx __$T0$__$T$ram_output_dupulicator1$118$trig_w
bxxxxxxxx __$T0$__$T$ram_output_dupulicator1$118$dbus_r
bxxxxxxxx __$T0$__$T$ram_output_dupulicator1$118$dbus_w
bx __$T0$__$T$ram_output_dupulicator1$118$abus_r
bx __$T0$__$T$ram_output_dupulicator1$118$abus_w
bxxxxxxxxxxxxxxxx __$T0$__$T$ram_output_dupulicator1$118$mem
bx __$T0$__$T$duplicator$147$in_ack
bx __$T0$__$T$duplicator$147$in_req
bx __$T0$__$T$duplicator$147$out_ack0
bx __$T0$__$T$duplicator$147$out_ack1
bxxxxxxxx __$T0$__$T$duplicator$147$data
$end
#0
b0 __$T0$__$T$clk
b0 __$T0$__$T$rst
b0 __$T0$__$T$req
b0 __$T0$__$T$fill
b00010000 __$T0$__$T$rom_inputs_x$1$dbus_r
b00000000 __$T0$__$T$rom_inputs_h$16$dbus_r
b0 __$T0$__$T$$134
b0 __$T0$__$T$$105
b0 __$T0$__$T$$8
b1 __$T0$__$T$duplicator$147$in_req
b0 __$T0$__$T$duplicator$147$out_ack0
b0 __$T0$__$T$duplicator$147$out_ack1
b00010000 __$T0$__$T$$10
b0 __$T0$__$T$ram_output_dupulicator1$118$trig_w
b0 __$T0$__$T$ram_output_dupulicator0$89$trig_w
b0 __$T0$__$T$rom_inputs_x$1$trig_r
#10
#10
b1 __$T0$__$T$rst
#20
b1 __$T0$__$T$clk
#30
b0 __$T0$__$T$clk
b1 __$T0$__$T$$135
b1 __$T0$__$T$$106
b1 __$T0$__$T$$9
b0 __$T0$__$T$duplicator$147$in_ack
b1 __$T0$__$T$ram_output_dupulicator1$118$abus_w
b1 __$T0$__$T$ram_output_dupulicator0$89$abus_w
b1 __$T0$__$T$rom_inputs_x$1$abus_r
#40
b1 __$T0$__$T$clk
#50
b0 __$T0$__$T$clk
b0 __$T0$__$T$rst
b1 __$T0$__$T$fill
b00000000 __$T0$__$T$rom_inputs_x$1$dbus_r
b1 __$T0$__$T$$8
b0 __$T0$__$T$$9
b00000000 __$T0$__$T$$10
b1 __$T0$__$T$rom_inputs_x$1$trig_r
b0 __$T0$__$T$rom_inputs_x$1$abus_r
#60
b1 __$T0$__$T$clk
#70
b0 __$T0$__$T$clk
b00010000 __$T0$__$T$rom_inputs_x$1$dbus_r
b1 __$T0$__$T$$134
b1 __$T0$__$T$$105
b0 __$T0$__$T$$8
b1 __$T0$__$T$duplicator$147$out_ack0
b1 __$T0$__$T$duplicator$147$out_ack1
b0 __$T0$__$T$$106
b00000000 __$T0$__$T$$107
b0 __$T0$__$T$$135
b00000000 __$T0$__$T$$136
b00000000 __$T0$__$T$duplicator$147$data
b1 __$T0$__$T$duplicator$147$in_ack
b00010000 __$T0$__$T$$10
b1 __$T0$__$T$ram_output_dupulicator1$118$trig_w
b1 __$T0$__$T$ram_output_dupulicator0$89$trig_w
b0 __$T0$__$T$rom_inputs_x$1$trig_r
b0 __$T0$__$T$ram_output_dupulicator0$89$abus_w
b00000000 __$T0$__$T$ram_output_dupulicator0$89$dbus_w
b0 __$T0$__$T$ram_output_dupulicator1$118$abus_w
b00000000 __$T0$__$T$ram_output_dupulicator1$118$dbus_w
#80
b1 __$T0$__$T$clk
#90
b0 __$T0$__$T$clk
bxxxxxxxx00000000 __$T0$__$T$ram_output_dupulicator0$89$mem
bxxxxxxxx00000000 __$T0$__$T$ram_output_dupulicator1$118$mem
b0 __$T0$__$T$$134
b0 __$T0$__$T$$105
b1 __$T0$__$T$$8
b0 __$T0$__$T$duplicator$147$in_req
b0 __$T0$__$T$duplicator$147$out_ack0
b0 __$T0$__$T$duplicator$147$out_ack1
b0 __$T0$__$T$duplicator$147$in_ack
b1 __$T0$__$T$$9
b0 __$T0$__$T$ram_output_dupulicator1$118$trig_w
b0 __$T0$__$T$ram_output_dupulicator0$89$trig_w
b1 __$T0$__$T$rom_inputs_x$1$trig_r
b1 __$T0$__$T$rom_inputs_x$1$abus_r
#100
b1 __$T0$__$T$clk
#110
b0 __$T0$__$T$clk
b00000000 __$T0$__$T$rom_inputs_x$1$dbus_r
b00000000 __$T0$__$T$ram_output_dupulicator0$89$dbus_r
b00000000 __$T0$__$T$ram_output_dupulicator1$118$dbus_r
b0 __$T0$__$T$$8
b1 __$T0$__$T$duplicator$147$in_req
b00000000 __$T0$__$T$$10
b0 __$T0$__$T$rom_inputs_x$1$trig_r
#120
b1 __$T0$__$T$clk
#130
b0 __$T0$__$T$clk
b1 __$T0$__$T$$8
b0 __$T0$__$T$$9
b1 __$T0$__$T$rom_inputs_x$1$trig_r
b0 __$T0$__$T$rom_inputs_x$1$abus_r
#140
b1 __$T0$__$T$clk
#150
b0 __$T0$__$T$clk
b00010000 __$T0$__$T$rom_inputs_x$1$dbus_r
b1 __$T0$__$T$$134
b1 __$T0$__$T$$105
b0 __$T0$__$T$$8
b1 __$T0$__$T$duplicator$147$out_ack0
b1 __$T0$__$T$duplicator$147$out_ack1
b1 __$T0$__$T$$106
b1 __$T0$__$T$$135
b1 __$T0$__$T$duplicator$147$in_ack
b00010000 __$T0$__$T$$10
b1 __$T0$__$T$ram_output_dupulicator1$118$trig_w
b1 __$T0$__$T$ram_output_dupulicator0$89$trig_w
b0 __$T0$__$T$rom_inputs_x$1$trig_r
b1 __$T0$__$T$ram_output_dupulicator0$89$abus_w
b1 __$T0$__$T$ram_output_dupulicator1$118$abus_w
#160
b1 __$T0$__$T$clk
#170
b0 __$T0$__$T$clk
b0000000000000000 __$T0$__$T$ram_output_dupulicator0$89$mem
b0000000000000000 __$T0$__$T$ram_output_dupulicator1$118$mem
b0 __$T0$__$T$$134
b0 __$T0$__$T$$105
b1 __$T0$__$T$$8
b0 __$T0$__$T$duplicator$147$in_req
b0 __$T0$__$T$duplicator$147$out_ack0
b0 __$T0$__$T$duplicator$147$out_ack1
b0 __$T0$__$T$duplicator$147$in_ack
b1 __$T0$__$T$$9
b0 __$T0$__$T$ram_output_dupulicator1$118$trig_w
b0 __$T0$__$T$ram_output_dupulicator0$89$trig_w
b1 __$T0$__$T$rom_inputs_x$1$trig_r
b1 __$T0$__$T$rom_inputs_x$1$abus_r
#180
b1 __$T0$__$T$clk
#190
b0 __$T0$__$T$clk
b00000000 __$T0$__$T$rom_inputs_x$1$dbus_r
b0 __$T0$__$T$$8
b1 __$T0$__$T$duplicator$147$in_req
b00000000 __$T0$__$T$$10
b0 __$T0$__$T$rom_inputs_x$1$trig_r
#200
b1 __$T0$__$T$clk
#210
b0 __$T0$__$T$clk
b1 __$T0$__$T$$8
b0 __$T0$__$T$$9
b1 __$T0$__$T$rom_inputs_x$1$trig_r
b0 __$T0$__$T$rom_inputs_x$1$abus_r
#220
b1 __$T0$__$T$clk
#230
b0 __$T0$__$T$clk
b00010000 __$T0$__$T$rom_inputs_x$1$dbus_r
b1 __$T0$__$T$$134
b1 __$T0$__$T$$105
b0 __$T0$__$T$$8
b1 __$T0$__$T$duplicator$147$out_ack0
b1 __$T0$__$T$duplicator$147$out_ack1
b0 __$T0$__$T$$106
b0 __$T0$__$T$$135
b1 __$T0$__$T$duplicator$147$in_ack
b00010000 __$T0$__$T$$10
b1 __$T0$__$T$ram_output_dupulicator1$118$trig_w
b1 __$T0$__$T$ram_output_dupulicator0$89$trig_w
b0 __$T0$__$T$rom_inputs_x$1$trig_r
b0 __$T0$__$T$ram_output_dupulicator0$89$abus_w
b0 __$T0$__$T$ram_output_dupulicator1$118$abus_w
#240
b1 __$T0$__$T$clk
#250
b0 __$T0$__$T$clk
b0 __$T0$__$T$$134
b0 __$T0$__$T$$105
b1 __$T0$__$T$$8
b0 __$T0$__$T$duplicator$147$in_req
b0 __$T0$__$T$duplicator$147$out_ack0
b0 __$T0$__$T$duplicator$147$out_ack1
b0 __$T0$__$T$duplicator$147$in_ack
b1 __$T0$__$T$$9
b0 __$T0$__$T$ram_output_dupulicator1$118$trig_w
b0 __$T0$__$T$ram_output_dupulicator0$89$trig_w
b1 __$T0$__$T$rom_inputs_x$1$trig_r
b1 __$T0$__$T$rom_inputs_x$1$abus_r
#260
b0 __$T0$__$T$fill
b1 __$T0$__$T$clk
#270
b0 __$T0$__$T$clk
b1 __$T0$__$T$req
b00000000 __$T0$__$T$rom_inputs_x$1$dbus_r
b0 __$T0$__$T$$8
b1 __$T0$__$T$duplicator$147$in_req
b00000000 __$T0$__$T$$10
b0 __$T0$__$T$rom_inputs_x$1$trig_r
#280
b1 __$T0$__$T$clk
#290
b0 __$T0$__$T$clk
b1 __$T0$__$T$$8
b0 __$T0$__$T$$9
b1 __$T0$__$T$rom_inputs_x$1$trig_r
b0 __$T0$__$T$rom_inputs_x$1$abus_r
#300
b1 __$T0$__$T$clk
#310
b0 __$T0$__$T$clk
b00010000 __$T0$__$T$rom_inputs_x$1$dbus_r
b1 __$T0$__$T$$134
b1 __$T0$__$T$$105
b0 __$T0$__$T$$8
b1 __$T0$__$T$duplicator$147$out_ack0
b1 __$T0$__$T$duplicator$147$out_ack1
b1 __$T0$__$T$$106
b1 __$T0$__$T$$135
b1 __$T0$__$T$duplicator$147$in_ack
b00010000 __$T0$__$T$$10
b1 __$T0$__$T$ram_output_dupulicator1$118$trig_w
b1 __$T0$__$T$ram_output_dupulicator0$89$trig_w
b0 __$T0$__$T$rom_inputs_x$1$trig_r
b1 __$T0$__$T$ram_output_dupulicator0$89$abus_w
b1 __$T0$__$T$ram_output_dupulicator1$118$abus_w
#320
b1 __$T0$__$T$clk
#330
b0 __$T0$__$T$clk
b0 __$T0$__$T$$134
b0 __$T0$__$T$$105
b1 __$T0$__$T$$8
b0 __$T0$__$T$duplicator$147$in_req
b0 __$T0$__$T$duplicator$147$out_ack0
b0 __$T0$__$T$duplicator$147$out_ack1
b0 __$T0$__$T$duplicator$147$in_ack
b1 __$T0$__$T$$9
b0 __$T0$__$T$ram_output_dupulicator1$118$trig_w
b0 __$T0$__$T$ram_output_dupulicator0$89$trig_w
b1 __$T0$__$T$rom_inputs_x$1$trig_r
b1 __$T0$__$T$rom_inputs_x$1$abus_r
#340
b1 __$T0$__$T$clk
#350
b0 __$T0$__$T$clk
b00000000 __$T0$__$T$rom_inputs_x$1$dbus_r
b0 __$T0$__$T$$8
b1 __$T0$__$T$duplicator$147$in_req
b00000000 __$T0$__$T$$10
b0 __$T0$__$T$rom_inputs_x$1$trig_r
#360
b1 __$T0$__$T$clk
#370
b0 __$T0$__$T$clk
b1 __$T0$__$T$$8
b0 __$T0$__$T$$9
b1 __$T0$__$T$rom_inputs_x$1$trig_r
b0 __$T0$__$T$rom_inputs_x$1$abus_r
#380
b1 __$T0$__$T$clk
#390
b0 __$T0$__$T$clk
b00010000 __$T0$__$T$rom_inputs_x$1$dbus_r
b1 __$T0$__$T$$134
b1 __$T0$__$T$$105
b0 __$T0$__$T$$8
b1 __$T0$__$T$duplicator$147$out_ack0
b1 __$T0$__$T$duplicator$147$out_ack1
b0 __$T0$__$T$$106
b0 __$T0$__$T$$135
b1 __$T0$__$T$duplicator$147$in_ack
b00010000 __$T0$__$T$$10
b1 __$T0$__$T$ram_output_dupulicator1$118$trig_w
b1 __$T0$__$T$ram_output_dupulicator0$89$trig_w
b0 __$T0$__$T$rom_inputs_x$1$trig_r
b0 __$T0$__$T$ram_output_dupulicator0$89$abus_w
b0 __$T0$__$T$ram_output_dupulicator1$118$abus_w
#400
b1 __$T0$__$T$clk
#410
b0 __$T0$__$T$clk
b0 __$T0$__$T$$134
b0 __$T0$__$T$$105
b1 __$T0$__$T$$8
b0 __$T0$__$T$duplicator$147$in_req
b0 __$T0$__$T$duplicator$147$out_ack0
b0 __$T0$__$T$duplicator$147$out_ack1
b0 __$T0$__$T$duplicator$147$in_ack
b1 __$T0$__$T$$9
b0 __$T0$__$T$ram_output_dupulicator1$118$trig_w
b0 __$T0$__$T$ram_output_dupulicator0$89$trig_w
b1 __$T0$__$T$rom_inputs_x$1$trig_r
b1 __$T0$__$T$rom_inputs_x$1$abus_r
#420
b1 __$T0$__$T$clk
#430
b0 __$T0$__$T$clk
b00000000 __$T0$__$T$rom_inputs_x$1$dbus_r
b0 __$T0$__$T$$8
b1 __$T0$__$T$duplicator$147$in_req
b00000000 __$T0$__$T$$10
b0 __$T0$__$T$rom_inputs_x$1$trig_r
#440
b1 __$T0$__$T$clk
#450
b0 __$T0$__$T$clk
b1 __$T0$__$T$$8
b0 __$T0$__$T$$9
b1 __$T0$__$T$rom_inputs_x$1$trig_r
b0 __$T0$__$T$rom_inputs_x$1$abus_r
#460
b1 __$T0$__$T$clk
#470
b0 __$T0$__$T$clk
b00010000 __$T0$__$T$rom_inputs_x$1$dbus_r
b1 __$T0$__$T$$134
b1 __$T0$__$T$$105
b0 __$T0$__$T$$8
b1 __$T0$__$T$duplicator$147$out_ack0
b1 __$T0$__$T$duplicator$147$out_ack1
b1 __$T0$__$T$$106
b1 __$T0$__$T$$135
b1 __$T0$__$T$duplicator$147$in_ack
b00010000 __$T0$__$T$$10
b1 __$T0$__$T$ram_output_dupulicator1$118$trig_w
b1 __$T0$__$T$ram_output_dupulicator0$89$trig_w
b0 __$T0$__$T$rom_inputs_x$1$trig_r
b1 __$T0$__$T$ram_output_dupulicator0$89$abus_w
b1 __$T0$__$T$ram_output_dupulicator1$118$abus_w
#480
b1 __$T0$__$T$clk
#490
b0 __$T0$__$T$clk
b0 __$T0$__$T$$134
b0 __$T0$__$T$$105
b1 __$T0$__$T$$8
b0 __$T0$__$T$duplicator$147$in_req
b0 __$T0$__$T$duplicator$147$out_ack0
b0 __$T0$__$T$duplicator$147$out_ack1
b0 __$T0$__$T$duplicator$147$in_ack
b1 __$T0$__$T$$9
b0 __$T0$__$T$ram_output_dupulicator1$118$trig_w
b0 __$T0$__$T$ram_output_dupulicator0$89$trig_w
b1 __$T0$__$T$rom_inputs_x$1$trig_r
b1 __$T0$__$T$rom_inputs_x$1$abus_r
#500
b1 __$T0$__$T$clk
#510
b0 __$T0$__$T$clk
b00000000 __$T0$__$T$rom_inputs_x$1$dbus_r
b0 __$T0$__$T$$8
b1 __$T0$__$T$duplicator$147$in_req
b00000000 __$T0$__$T$$10
b0 __$T0$__$T$rom_inputs_x$1$trig_r
#520
b1 __$T0$__$T$clk
#530
b0 __$T0$__$T$clk
b1 __$T0$__$T$$8
b0 __$T0$__$T$$9
b1 __$T0$__$T$rom_inputs_x$1$trig_r
b0 __$T0$__$T$rom_inputs_x$1$abus_r
#540
b1 __$T0$__$T$clk
#550
b0 __$T0$__$T$clk
b00010000 __$T0$__$T$rom_inputs_x$1$dbus_r
b1 __$T0$__$T$$134
b1 __$T0$__$T$$105
b0 __$T0$__$T$$8
b1 __$T0$__$T$duplicator$147$out_ack0
b1 __$T0$__$T$duplicator$147$out_ack1
b0 __$T0$__$T$$106
b0 __$T0$__$T$$135
b1 __$T0$__$T$duplicator$147$in_ack
b00010000 __$T0$__$T$$10
b1 __$T0$__$T$ram_output_dupulicator1$118$trig_w
b1 __$T0$__$T$ram_output_dupulicator0$89$trig_w
b0 __$T0$__$T$rom_inputs_x$1$trig_r
b0 __$T0$__$T$ram_output_dupulicator0$89$abus_w
b0 __$T0$__$T$ram_output_dupulicator1$118$abus_w
#560
b1 __$T0$__$T$clk
#570
b0 __$T0$__$T$clk
b0 __$T0$__$T$$134
b0 __$T0$__$T$$105
b1 __$T0$__$T$$8
b0 __$T0$__$T$duplicator$147$in_req
b0 __$T0$__$T$duplicator$147$out_ack0
b0 __$T0$__$T$duplicator$147$out_ack1
b0 __$T0$__$T$duplicator$147$in_ack
b1 __$T0$__$T$$9
b0 __$T0$__$T$ram_output_dupulicator1$118$trig_w
b0 __$T0$__$T$ram_output_dupulicator0$89$trig_w
b1 __$T0$__$T$rom_inputs_x$1$trig_r
b1 __$T0$__$T$rom_inputs_x$1$abus_r
#580
b1 __$T0$__$T$clk
#590
b0 __$T0$__$T$clk
b00000000 __$T0$__$T$rom_inputs_x$1$dbus_r
b0 __$T0$__$T$$8
b1 __$T0$__$T$duplicator$147$in_req
b00000000 __$T0$__$T$$10
b0 __$T0$__$T$rom_inputs_x$1$trig_r
#600
b1 __$T0$__$T$clk
#610
b0 __$T0$__$T$clk
b1 __$T0$__$T$$8
b0 __$T0$__$T$$9
b1 __$T0$__$T$rom_inputs_x$1$trig_r
b0 __$T0$__$T$rom_inputs_x$1$abus_r
#620
b1 __$T0$__$T$clk
#630
b0 __$T0$__$T$clk
b00010000 __$T0$__$T$rom_inputs_x$1$dbus_r
b1 __$T0$__$T$$134
b1 __$T0$__$T$$105
b0 __$T0$__$T$$8
b1 __$T0$__$T$duplicator$147$out_ack0
b1 __$T0$__$T$duplicator$147$out_ack1
b1 __$T0$__$T$$106
b1 __$T0$__$T$$135
b1 __$T0$__$T$duplicator$147$in_ack
b00010000 __$T0$__$T$$10
b1 __$T0$__$T$ram_output_dupulicator1$118$trig_w
b1 __$T0$__$T$ram_output_dupulicator0$89$trig_w
b0 __$T0$__$T$rom_inputs_x$1$trig_r
b1 __$T0$__$T$ram_output_dupulicator0$89$abus_w
b1 __$T0$__$T$ram_output_dupulicator1$118$abus_w
#640
b1 __$T0$__$T$clk
#650
b0 __$T0$__$T$clk
b0 __$T0$__$T$$134
b0 __$T0$__$T$$105
b1 __$T0$__$T$$8
b0 __$T0$__$T$duplicator$147$in_req
b0 __$T0$__$T$duplicator$147$out_ack0
b0 __$T0$__$T$duplicator$147$out_ack1
b0 __$T0$__$T$duplicator$147$in_ack
b1 __$T0$__$T$$9
b0 __$T0$__$T$ram_output_dupulicator1$118$trig_w
b0 __$T0$__$T$ram_output_dupulicator0$89$trig_w
b1 __$T0$__$T$rom_inputs_x$1$trig_r
b1 __$T0$__$T$rom_inputs_x$1$abus_r
#660
b1 __$T0$__$T$clk
#670
b0 __$T0$__$T$clk
b00000000 __$T0$__$T$rom_inputs_x$1$dbus_r
b0 __$T0$__$T$$8
b1 __$T0$__$T$duplicator$147$in_req
b00000000 __$T0$__$T$$10
b0 __$T0$__$T$rom_inputs_x$1$trig_r
#680
b1 __$T0$__$T$clk
#690
b0 __$T0$__$T$clk
b1 __$T0$__$T$$8
b0 __$T0$__$T$$9
b1 __$T0$__$T$rom_inputs_x$1$trig_r
b0 __$T0$__$T$rom_inputs_x$1$abus_r
#700
b1 __$T0$__$T$clk
#710
b0 __$T0$__$T$clk
b00010000 __$T0$__$T$rom_inputs_x$1$dbus_r
b1 __$T0$__$T$$134
b1 __$T0$__$T$$105
b0 __$T0$__$T$$8
b1 __$T0$__$T$duplicator$147$out_ack0
b1 __$T0$__$T$duplicator$147$out_ack1
b0 __$T0$__$T$$106
b0 __$T0$__$T$$135
b1 __$T0$__$T$duplicator$147$in_ack
b00010000 __$T0$__$T$$10
b1 __$T0$__$T$ram_output_dupulicator1$118$trig_w
b1 __$T0$__$T$ram_output_dupulicator0$89$trig_w
b0 __$T0$__$T$rom_inputs_x$1$trig_r
b0 __$T0$__$T$ram_output_dupulicator0$89$abus_w
b0 __$T0$__$T$ram_output_dupulicator1$118$abus_w
#720
b1 __$T0$__$T$clk
#730
b0 __$T0$__$T$clk
b0 __$T0$__$T$$134
b0 __$T0$__$T$$105
b1 __$T0$__$T$$8
b0 __$T0$__$T$duplicator$147$in_req
b0 __$T0$__$T$duplicator$147$out_ack0
b0 __$T0$__$T$duplicator$147$out_ack1
b0 __$T0$__$T$duplicator$147$in_ack
b1 __$T0$__$T$$9
b0 __$T0$__$T$ram_output_dupulicator1$118$trig_w
b0 __$T0$__$T$ram_output_dupulicator0$89$trig_w
b1 __$T0$__$T$rom_inputs_x$1$trig_r
b1 __$T0$__$T$rom_inputs_x$1$abus_r
#740
b1 __$T0$__$T$clk
#750
b0 __$T0$__$T$clk
b00000000 __$T0$__$T$rom_inputs_x$1$dbus_r
b0 __$T0$__$T$$8
b1 __$T0$__$T$duplicator$147$in_req
b00000000 __$T0$__$T$$10
b0 __$T0$__$T$rom_inputs_x$1$trig_r
#760
b1 __$T0$__$T$clk
#770
b0 __$T0$__$T$clk
b1 __$T0$__$T$$8
b0 __$T0$__$T$$9
b1 __$T0$__$T$rom_inputs_x$1$trig_r
b0 __$T0$__$T$rom_inputs_x$1$abus_r
#780
b1 __$T0$__$T$clk
#790
b0 __$T0$__$T$clk
b00010000 __$T0$__$T$rom_inputs_x$1$dbus_r
b1 __$T0$__$T$$134
b1 __$T0$__$T$$105
b0 __$T0$__$T$$8
b1 __$T0$__$T$duplicator$147$out_ack0
b1 __$T0$__$T$duplicator$147$out_ack1
b1 __$T0$__$T$$106
b1 __$T0$__$T$$135
b1 __$T0$__$T$duplicator$147$in_ack
b00010000 __$T0$__$T$$10
b1 __$T0$__$T$ram_output_dupulicator1$118$trig_w
b1 __$T0$__$T$ram_output_dupulicator0$89$trig_w
b0 __$T0$__$T$rom_inputs_x$1$trig_r
b1 __$T0$__$T$ram_output_dupulicator0$89$abus_w
b1 __$T0$__$T$ram_output_dupulicator1$118$abus_w
#800
b1 __$T0$__$T$clk
#810
b0 __$T0$__$T$clk
b0 __$T0$__$T$$134
b0 __$T0$__$T$$105
b1 __$T0$__$T$$8
b0 __$T0$__$T$duplicator$147$in_req
b0 __$T0$__$T$duplicator$147$out_ack0
b0 __$T0$__$T$duplicator$147$out_ack1
b0 __$T0$__$T$duplicator$147$in_ack
b1 __$T0$__$T$$9
b0 __$T0$__$T$ram_output_dupulicator1$118$trig_w
b0 __$T0$__$T$ram_output_dupulicator0$89$trig_w
b1 __$T0$__$T$rom_inputs_x$1$trig_r
b1 __$T0$__$T$rom_inputs_x$1$abus_r
#820
b1 __$T0$__$T$clk
#830
b0 __$T0$__$T$clk
b00000000 __$T0$__$T$rom_inputs_x$1$dbus_r
b0 __$T0$__$T$$8
b1 __$T0$__$T$duplicator$147$in_req
b00000000 __$T0$__$T$$10
b0 __$T0$__$T$rom_inputs_x$1$trig_r
#840
b1 __$T0$__$T$clk
#850
b0 __$T0$__$T$clk
b1 __$T0$__$T$$8
b0 __$T0$__$T$$9
b1 __$T0$__$T$rom_inputs_x$1$trig_r
b0 __$T0$__$T$rom_inputs_x$1$abus_r
#860
b1 __$T0$__$T$clk
#870
b0 __$T0$__$T$clk
b00010000 __$T0$__$T$rom_inputs_x$1$dbus_r
b1 __$T0$__$T$$134
b1 __$T0$__$T$$105
b0 __$T0$__$T$$8
b1 __$T0$__$T$duplicator$147$out_ack0
b1 __$T0$__$T$duplicator$147$out_ack1
b0 __$T0$__$T$$106
b0 __$T0$__$T$$135
b1 __$T0$__$T$duplicator$147$in_ack
b00010000 __$T0$__$T$$10
b1 __$T0$__$T$ram_output_dupulicator1$118$trig_w
b1 __$T0$__$T$ram_output_dupulicator0$89$trig_w
b0 __$T0$__$T$rom_inputs_x$1$trig_r
b0 __$T0$__$T$ram_output_dupulicator0$89$abus_w
b0 __$T0$__$T$ram_output_dupulicator1$118$abus_w
#880
b1 __$T0$__$T$clk
